<svg width="325" height="50" xmlns="http://www.w3.org/2000/svg">
 <!-- Created with Method Draw - http://github.com/duopixel/Method-Draw/ -->
 <g>
  <title>background</title>
  <rect fill="none" id="canvas_background" height="52" width="327" y="-1" x="-1"/>
  <g display="none" overflow="visible" y="0" x="0" height="100%" width="100%" id="canvasGrid">
   <rect fill="url(#gridpattern)" stroke-width="0" y="0" x="0" height="100%" width="100%"/>
  </g>
 </g>
 <g>
  <title>Layer 1</title>
  <rect id="svg_1" height="50" width="300" y="0.091832" x="-0.067399" stroke-width="0" stroke="#000" fill="#2ab877"/>
  <rect transform="rotate(45 300.0026245117188,25.025794982910117) " stroke="#000" id="svg_2" height="35.489448" width="35.181377" y="7.281081" x="282.411877" stroke-opacity="null" stroke-width="0" fill="#2ab877"/>
 </g>
</svg>